This is BibTeX, Version 0.99d (TeX Live 2016)
Capacity: max_strings=35307, hash_size=35307, hash_prime=30011
The top-level auxiliary file: buku_ta.aux
The style file: IEEEtran.bst
Reallocated singl_function (elt_size=4) to 100 items from 50.
Reallocated singl_function (elt_size=4) to 100 items from 50.
Reallocated singl_function (elt_size=4) to 100 items from 50.
Reallocated wiz_functions (elt_size=4) to 6000 items from 3000.
Reallocated singl_function (elt_size=4) to 100 items from 50.
Database file #1: references.bib
-- IEEEtran.bst version 1.14 (2015/08/26) by Michael Shell.
-- http://www.michaelshell.org/tex/ieeetran/bibtex/
-- See the "IEEEtran_bst_HOWTO.pdf" manual for usage information.

Done.
You've used 15 entries,
            4087 wiz_defined-function locations,
            918 strings with 10169 characters,
and the built_in function-call counts, 10724 in all, are:
= -- 814
> -- 269
< -- 68
+ -- 145
- -- 51
* -- 539
:= -- 1620
add.period$ -- 32
call.type$ -- 15
change.case$ -- 18
chr.to.int$ -- 159
cite$ -- 15
duplicate$ -- 776
empty$ -- 921
format.name$ -- 63
if$ -- 2485
int.to.chr$ -- 0
int.to.str$ -- 15
missing$ -- 154
newline$ -- 80
num.names$ -- 18
pop$ -- 398
preamble$ -- 1
purify$ -- 0
quote$ -- 2
skip$ -- 807
stack$ -- 0
substring$ -- 387
swap$ -- 605
text.length$ -- 15
text.prefix$ -- 0
top$ -- 5
type$ -- 15
warning$ -- 0
while$ -- 42
width$ -- 17
write$ -- 173
