\relax 
\select@language{bahasa}
\@writefile{toc}{\select@language{bahasa}}
\@writefile{lof}{\select@language{bahasa}}
\@writefile{lot}{\select@language{bahasa}}
\@writefile{toc}{\contentsline {chapter}{Lembar Pernyataan}{ii}}
\@writefile{toc}{\contentsline {chapter}{Lembar Pengesahan}{iii}}
\@writefile{toc}{\contentsline {chapter}{Kata Pengantar}{iv}}
\@writefile{toc}{\contentsline {chapter}{Lembar Persembahan}{v}}
\@writefile{toc}{\contentsline {chapter}{Daftar Gambar}{viii}}
\@writefile{toc}{\contentsline {chapter}{Daftar Tabel}{ix}}
\citation{hadoop2011apache}
\citation{6216347}
\citation{5708479}
\citation{7038858}
\citation{OpenVZ}
\citation{LXC2015}
\@writefile{toc}{\contentsline {chapter}{\numberline {1}Pendahuluan}{1}}
\@writefile{lof}{\addvspace {10\p@ }}
\@writefile{lot}{\addvspace {10\p@ }}
\@writefile{toc}{\contentsline {section}{\numberline {1.1}Latar Belakang}{1}}
\@writefile{toc}{\contentsline {section}{\numberline {1.2}Rumusan Masalah}{2}}
\@writefile{toc}{\contentsline {section}{\numberline {1.3}Tujuan}{2}}
\@writefile{toc}{\contentsline {section}{\numberline {1.4}Batasan Masalah}{2}}
\citation{6787290}
\@writefile{toc}{\contentsline {section}{\numberline {1.5}Hipotesa}{3}}
\@writefile{toc}{\contentsline {section}{\numberline {1.6}Metodologi}{3}}
\@writefile{toc}{\contentsline {section}{\numberline {1.7}Sistematika Penulisan}{4}}
\citation{hadoop2011apache}
\@writefile{toc}{\contentsline {chapter}{\numberline {2}Dasar Teori}{6}}
\@writefile{lof}{\addvspace {10\p@ }}
\@writefile{lot}{\addvspace {10\p@ }}
\@writefile{toc}{\contentsline {section}{\numberline {2.1}Apache Hadoop}{6}}
\@writefile{lof}{\contentsline {figure}{\numberline {2.1}{\ignorespaces Arsitektur minimal hadoop}}{6}}
\newlabel{fig:hadoop-architecture}{{2.1}{6}}
\citation{Ibrahim2009}
\citation{dean2008mapreduce}
\@writefile{toc}{\contentsline {subsection}{\numberline {2.1.1}\textit  {Hadoop Distributed File System}}{7}}
\@writefile{lof}{\contentsline {figure}{\numberline {2.2}{\ignorespaces Arsitektur HDFS}}{7}}
\newlabel{fig:hdfs-architecture}{{2.2}{7}}
\@writefile{toc}{\contentsline {subsection}{\numberline {2.1.2}MapReduce}{7}}
\citation{vavilapalli2013apache}
\citation{hasenstein2001logical}
\@writefile{toc}{\contentsline {subsection}{\numberline {2.1.3}Hadoop MapReduce V2 / \textit  {Yet Another Resources Negotiator} (YARN)}{8}}
\@writefile{lof}{\contentsline {figure}{\numberline {2.3}{\ignorespaces Arsitektur MapReduce V2}}{8}}
\newlabel{fig:yarn-architecture}{{2.3}{8}}
\citation{virtualization}
\@writefile{toc}{\contentsline {section}{\numberline {2.2}\textit  {Logical Volume Manager} (LVM)}{9}}
\@writefile{lof}{\contentsline {figure}{\numberline {2.4}{\ignorespaces Abstraksi LVM}}{9}}
\newlabel{fig:lvm-abstraction}{{2.4}{9}}
\@writefile{toc}{\contentsline {section}{\numberline {2.3}\textit  {Virtualization}}{9}}
\citation{6498558}
\citation{LXC2015}
\@writefile{toc}{\contentsline {section}{\numberline {2.4}\textit  {Container-based Virtualization}}{10}}
\@writefile{lof}{\contentsline {figure}{\numberline {2.5}{\ignorespaces \textit  {Hypervisor} dan kontainer}}{10}}
\newlabel{fig:vm-container}{{2.5}{10}}
\@writefile{toc}{\contentsline {subsection}{\numberline {2.4.1}\textit  {Linux Container} (LXC)}{10}}
\citation{OpenVZ}
\@writefile{lof}{\contentsline {figure}{\numberline {2.6}{\ignorespaces Arsitektur \textit  {Linux Container}}}{11}}
\newlabel{fig:container-architecture}{{2.6}{11}}
\@writefile{toc}{\contentsline {subsection}{\numberline {2.4.2}\textit  {OpenVirtuozzo} (OpenVZ)}{11}}
\@writefile{toc}{\contentsline {subsection}{\numberline {2.4.3}Dataset}{12}}
\@writefile{toc}{\contentsline {subsubsection}{\textit  {Syslog Server Universitas Telkom}}{12}}
\@writefile{toc}{\contentsline {chapter}{\numberline {3}Perancangan Sistem}{13}}
\@writefile{lof}{\addvspace {10\p@ }}
\@writefile{lot}{\addvspace {10\p@ }}
\@writefile{toc}{\contentsline {section}{\numberline {3.1}Analisis Kebutuhan}{13}}
\@writefile{toc}{\contentsline {subsection}{\numberline {3.1.1}Spesifikasi Perangkat Keras}{13}}
\@writefile{toc}{\contentsline {subsection}{\numberline {3.1.2}Spesifikasi Perangkat Lunak}{13}}
\@writefile{toc}{\contentsline {section}{\numberline {3.2}Perancangan Sistem}{14}}
\@writefile{toc}{\contentsline {subsection}{\numberline {3.2.1}Gambaran Umum Sistem}{14}}
\@writefile{toc}{\contentsline {subsection}{\numberline {3.2.2}Arsitektur Sistem}{14}}
\@writefile{toc}{\contentsline {subsection}{\numberline {3.2.3}Pemasangan Cluster}{14}}
\@writefile{toc}{\contentsline {subsubsection}{Kebutuhan Sistem}{14}}
\@writefile{lof}{\contentsline {figure}{\numberline {3.1}{\ignorespaces Arsitektur Sistem}}{15}}
\newlabel{fig:arsitektur}{{3.1}{15}}
\@writefile{lof}{\contentsline {figure}{\numberline {3.2}{\ignorespaces Topologi Jaringan Cluster}}{15}}
\newlabel{fig:topologi}{{3.2}{15}}
\@writefile{toc}{\contentsline {subsubsection}{Konfigurasi LVM}{15}}
\@writefile{toc}{\contentsline {subsubsection}{Langkah Pemasangan}{16}}
\@writefile{lof}{\contentsline {figure}{\numberline {3.3}{\ignorespaces Versi Hadoop}}{18}}
\newlabel{fig:hadoop-version}{{3.3}{18}}
\@writefile{lol}{\contentsline {lstlisting}{\numberline {3.1}hdfs-site.xml}{18}}
\@writefile{lol}{\contentsline {lstlisting}{\numberline {3.2}core-site.xml}{19}}
\@writefile{lol}{\contentsline {lstlisting}{\numberline {3.3}mapred-site.xml}{19}}
\@writefile{lol}{\contentsline {lstlisting}{\numberline {3.4}yarn-site.xml}{20}}
\@writefile{lof}{\contentsline {figure}{\numberline {3.4}{\ignorespaces Log HDFS dan YARN}}{22}}
\newlabel{fig:log-jalan}{{3.4}{22}}
\@writefile{lof}{\contentsline {figure}{\numberline {3.5}{\ignorespaces DataNode Aktif}}{22}}
\newlabel{fig:nn-aktif}{{3.5}{22}}
\@writefile{lof}{\contentsline {figure}{\numberline {3.6}{\ignorespaces NodeManager Aktif}}{23}}
\newlabel{fig:yarn-aktif}{{3.6}{23}}
\@writefile{lof}{\contentsline {figure}{\numberline {3.7}{\ignorespaces HDFS Put}}{23}}
\newlabel{fig:uji-hdfs}{{3.7}{23}}
\@writefile{lof}{\contentsline {figure}{\numberline {3.8}{\ignorespaces Job WordCount}}{23}}
\newlabel{fig:job-fungsi}{{3.8}{23}}
\@writefile{lof}{\contentsline {figure}{\numberline {3.9}{\ignorespaces Job WordCount di JobHistory}}{23}}
\newlabel{fig:web-sukses}{{3.9}{23}}
\citation{Ivanov2015}
\citation{7038858}
\citation{7038858}
\citation{7038858}
\citation{Ivanov2015}
\citation{7038858}
\@writefile{toc}{\contentsline {chapter}{\numberline {4}Analisa dan Pengujian Sistem}{24}}
\@writefile{lof}{\addvspace {10\p@ }}
\@writefile{lot}{\addvspace {10\p@ }}
\@writefile{toc}{\contentsline {section}{\numberline {4.1}Tujuan Pengujian}{24}}
\@writefile{toc}{\contentsline {section}{\numberline {4.2}Metode Pengujian}{24}}
\citation{snapnets}
\citation{7038858}
\@writefile{toc}{\contentsline {section}{\numberline {4.3}Skenario Pengujian Sistem}{25}}
\@writefile{toc}{\contentsline {subsection}{\numberline {4.3.1}Skenario Pengujian I/O Throughput}{25}}
\@writefile{lot}{\contentsline {table}{\numberline {4.1}{\ignorespaces Skenario pengujian \textit  {I/O throughput write operation}}}{25}}
\newlabel{skenario-io}{{4.1}{25}}
\@writefile{lot}{\contentsline {table}{\numberline {4.2}{\ignorespaces Skenario pengujian \textit  {I/O throughput read operation}}}{25}}
\newlabel{skenario-io-read}{{4.2}{25}}
\@writefile{toc}{\contentsline {subsection}{\numberline {4.3.2}Skenario Pengujian Average Time Execution}{25}}
\@writefile{toc}{\contentsline {section}{\numberline {4.4}Analisa Hasil Pengujian}{25}}
\@writefile{lot}{\contentsline {table}{\numberline {4.3}{\ignorespaces Skenario pengujian \textit  {average time execution}}}{26}}
\newlabel{skenario-avgtime}{{4.3}{26}}
\@writefile{toc}{\contentsline {subsection}{\numberline {4.4.1}Analisa I/O Throughput}{26}}
\@writefile{lot}{\contentsline {table}{\numberline {4.4}{\ignorespaces Hasil pengujian \textit  {I/O throughput write operation}}}{26}}
\newlabel{hasil-io-write}{{4.4}{26}}
\@writefile{lot}{\contentsline {table}{\numberline {4.5}{\ignorespaces Skenario pengujian \textit  {I/O throughput read operation}}}{26}}
\newlabel{hasil-io-read}{{4.5}{26}}
\@writefile{lof}{\contentsline {figure}{\numberline {4.1}{\ignorespaces Perbandingan throughput write operation}}{26}}
\newlabel{fig:io-write}{{4.1}{26}}
\citation{snapnets}
\@writefile{lof}{\contentsline {figure}{\numberline {4.2}{\ignorespaces Perbandingan throughput write operation}}{27}}
\newlabel{fig:io-read}{{4.2}{27}}
\@writefile{toc}{\contentsline {subsection}{\numberline {4.4.2}Analisa Average Time Execution}{27}}
\@writefile{lot}{\contentsline {table}{\numberline {4.6}{\ignorespaces Hasil pengujian \textit  {average time execution}}}{27}}
\newlabel{hasil-avgtime}{{4.6}{27}}
\bibstyle{IEEEtran}
\bibdata{references}
\@writefile{toc}{\contentsline {chapter}{\numberline {5}Kesimpulan dan Saran}{28}}
\@writefile{lof}{\addvspace {10\p@ }}
\@writefile{lot}{\addvspace {10\p@ }}
\@writefile{toc}{\contentsline {section}{\numberline {5.1}Kesimpulan}{28}}
\@writefile{toc}{\contentsline {section}{\numberline {5.2}Saran}{28}}
\@writefile{toc}{\contentsline {chapter}{Daftar Pustaka}{28}}
\bibcite{hadoop2011apache}{1}
\bibcite{6216347}{2}
\bibcite{5708479}{3}
\bibcite{7038858}{4}
\bibcite{OpenVZ}{5}
\bibcite{LXC2015}{6}
\bibcite{6787290}{7}
\bibcite{Ibrahim2009}{8}
\bibcite{dean2008mapreduce}{9}
\bibcite{vavilapalli2013apache}{10}
\bibcite{hasenstein2001logical}{11}
\bibcite{virtualization}{12}
\bibcite{6498558}{13}
\bibcite{Ivanov2015}{14}
\bibcite{snapnets}{15}
\@writefile{toc}{\contentsline {chapter}{Lampiran}{30}}
