\select@language {bahasa}
\addvspace {10\p@ }
\addvspace {10\p@ }
\addvspace {10\p@ }
\addvspace {10\p@ }
\contentsline {table}{\numberline {4.1}{\ignorespaces Skenario pengujian \textit {I/O throughput write operation}}}{25}
\contentsline {table}{\numberline {4.2}{\ignorespaces Skenario pengujian \textit {I/O throughput read operation}}}{25}
\contentsline {table}{\numberline {4.3}{\ignorespaces Skenario pengujian \textit {average time execution}}}{26}
\contentsline {table}{\numberline {4.4}{\ignorespaces Hasil pengujian \textit {I/O throughput write operation}}}{26}
\contentsline {table}{\numberline {4.5}{\ignorespaces Skenario pengujian \textit {I/O throughput read operation}}}{26}
\contentsline {table}{\numberline {4.6}{\ignorespaces Hasil pengujian \textit {average time execution}}}{27}
\addvspace {10\p@ }
