\beamer@endinputifotherversion {3.36pt}
\select@language {bahasa}
\beamer@sectionintoc {1}{Latar Belakang}{3}{0}{1}
\beamer@sectionintoc {2}{Permasalahan}{4}{0}{2}
\beamer@sectionintoc {3}{Tujuan Penelitian}{5}{0}{3}
\beamer@sectionintoc {4}{Batasan Masalah}{6}{0}{4}
\beamer@sectionintoc {5}{Metode Penelitian}{7}{0}{5}
\beamer@sectionintoc {6}{Dasar Teori}{8}{0}{6}
\beamer@sectionintoc {7}{Perancangan Sistem}{16}{0}{7}
