\relax 
\providecommand\hyper@newdestlabel[2]{}
\providecommand\HyperFirstAtBeginDocument{\AtBeginDocument}
\HyperFirstAtBeginDocument{\ifx\hyper@anchor\@undefined
\global\let\oldcontentsline\contentsline
\gdef\contentsline#1#2#3#4{\oldcontentsline{#1}{#2}{#3}}
\global\let\oldnewlabel\newlabel
\gdef\newlabel#1#2{\newlabelxx{#1}#2}
\gdef\newlabelxx#1#2#3#4#5#6{\oldnewlabel{#1}{{#2}{#3}}}
\AtEndDocument{\ifx\hyper@anchor\@undefined
\let\contentsline\oldcontentsline
\let\newlabel\oldnewlabel
\fi}
\fi}
\global\let\hyper@last\relax 
\gdef\HyperFirstAtBeginDocument#1{#1}
\providecommand\HyField@AuxAddToFields[1]{}
\providecommand\HyField@AuxAddToCoFields[2]{}
\@writefile{toc}{\beamer@endinputifotherversion {3.36pt}}
\@writefile{nav}{\beamer@endinputifotherversion {3.36pt}}
\select@language{bahasa}
\@writefile{toc}{\select@language{bahasa}}
\@writefile{lof}{\select@language{bahasa}}
\@writefile{lot}{\select@language{bahasa}}
\@writefile{nav}{\headcommand {\slideentry {0}{0}{1}{1/1}{}{0}}}
\@writefile{nav}{\headcommand {\beamer@framepages {1}{1}}}
\@writefile{nav}{\headcommand {\slideentry {0}{0}{2}{2/2}{}{0}}}
\@writefile{nav}{\headcommand {\beamer@framepages {2}{2}}}
\@writefile{toc}{\beamer@sectionintoc {1}{Latar Belakang}{3}{0}{1}}
\@writefile{nav}{\headcommand {\sectionentry {1}{Latar Belakang}{3}{Latar Belakang}{0}}}
\@writefile{nav}{\headcommand {\beamer@sectionpages {1}{2}}}
\@writefile{nav}{\headcommand {\beamer@subsectionpages {1}{2}}}
\@writefile{nav}{\headcommand {\slideentry {1}{0}{1}{3/3}{}{0}}}
\@writefile{nav}{\headcommand {\beamer@framepages {3}{3}}}
\@writefile{toc}{\beamer@sectionintoc {2}{Permasalahan}{4}{0}{2}}
\@writefile{nav}{\headcommand {\sectionentry {2}{Permasalahan}{4}{Permasalahan}{0}}}
\@writefile{nav}{\headcommand {\beamer@sectionpages {3}{3}}}
\@writefile{nav}{\headcommand {\beamer@subsectionpages {3}{3}}}
\@writefile{nav}{\headcommand {\slideentry {2}{0}{1}{4/4}{}{0}}}
\@writefile{nav}{\headcommand {\beamer@framepages {4}{4}}}
\@writefile{toc}{\beamer@sectionintoc {3}{Tujuan Penelitian}{5}{0}{3}}
\@writefile{nav}{\headcommand {\sectionentry {3}{Tujuan Penelitian}{5}{Tujuan Penelitian}{0}}}
\@writefile{nav}{\headcommand {\beamer@sectionpages {4}{4}}}
\@writefile{nav}{\headcommand {\beamer@subsectionpages {4}{4}}}
\@writefile{nav}{\headcommand {\slideentry {3}{0}{1}{5/5}{}{0}}}
\@writefile{nav}{\headcommand {\beamer@framepages {5}{5}}}
\@writefile{toc}{\beamer@sectionintoc {4}{Batasan Masalah}{6}{0}{4}}
\@writefile{nav}{\headcommand {\sectionentry {4}{Batasan Masalah}{6}{Batasan Masalah}{0}}}
\@writefile{nav}{\headcommand {\beamer@sectionpages {5}{5}}}
\@writefile{nav}{\headcommand {\beamer@subsectionpages {5}{5}}}
\@writefile{nav}{\headcommand {\slideentry {4}{0}{1}{6/6}{}{0}}}
\@writefile{nav}{\headcommand {\beamer@framepages {6}{6}}}
\@writefile{toc}{\beamer@sectionintoc {5}{Metode Penelitian}{7}{0}{5}}
\@writefile{nav}{\headcommand {\sectionentry {5}{Metode Penelitian}{7}{Metode Penelitian}{0}}}
\@writefile{nav}{\headcommand {\beamer@sectionpages {6}{6}}}
\@writefile{nav}{\headcommand {\beamer@subsectionpages {6}{6}}}
\@writefile{nav}{\headcommand {\slideentry {5}{0}{1}{7/7}{}{0}}}
\@writefile{nav}{\headcommand {\beamer@framepages {7}{7}}}
\@writefile{toc}{\beamer@sectionintoc {6}{Dasar Teori}{8}{0}{6}}
\@writefile{nav}{\headcommand {\sectionentry {6}{Dasar Teori}{8}{Dasar Teori}{0}}}
\@writefile{nav}{\headcommand {\beamer@sectionpages {7}{7}}}
\@writefile{nav}{\headcommand {\beamer@subsectionpages {7}{7}}}
\newlabel{fig:hadoop-logo}{{1}{8}{Dasar Teori}{Doc-Start}{}}
\@writefile{snm}{\beamer@slide {fig:hadoop-logo}{8}}
\@writefile{nav}{\headcommand {\slideentry {6}{0}{1}{8/8}{}{0}}}
\@writefile{nav}{\headcommand {\beamer@framepages {8}{8}}}
\newlabel{fig:hadoop-architecture}{{2}{9}{Dasar Teori}{Doc-Start}{}}
\@writefile{snm}{\beamer@slide {fig:hadoop-architecture}{9}}
\@writefile{nav}{\headcommand {\slideentry {6}{0}{2}{9/9}{}{0}}}
\@writefile{nav}{\headcommand {\beamer@framepages {9}{9}}}
\newlabel{fig:hdfs-architecture}{{3}{10}{Dasar Teori}{Doc-Start}{}}
\@writefile{snm}{\beamer@slide {fig:hdfs-architecture}{10}}
\@writefile{nav}{\headcommand {\slideentry {6}{0}{3}{10/10}{}{0}}}
\@writefile{nav}{\headcommand {\beamer@framepages {10}{10}}}
\newlabel{fig:yarn-architecture}{{4}{11}{Dasar Teori}{Doc-Start}{}}
\@writefile{snm}{\beamer@slide {fig:yarn-architecture}{11}}
\@writefile{nav}{\headcommand {\slideentry {6}{0}{4}{11/11}{}{0}}}
\@writefile{nav}{\headcommand {\beamer@framepages {11}{11}}}
\@writefile{nav}{\headcommand {\slideentry {6}{0}{5}{12/12}{}{0}}}
\@writefile{nav}{\headcommand {\beamer@framepages {12}{12}}}
\newlabel{fig:vm-container}{{5}{13}{Dasar Teori}{Doc-Start}{}}
\@writefile{snm}{\beamer@slide {fig:vm-container}{13}}
\@writefile{nav}{\headcommand {\slideentry {6}{0}{6}{13/13}{}{0}}}
\@writefile{nav}{\headcommand {\beamer@framepages {13}{13}}}
\newlabel{fig:lxc-architecture}{{6}{14}{Dasar Teori}{Doc-Start}{}}
\@writefile{snm}{\beamer@slide {fig:lxc-architecture}{14}}
\@writefile{nav}{\headcommand {\slideentry {6}{0}{7}{14/14}{}{0}}}
\@writefile{nav}{\headcommand {\beamer@framepages {14}{14}}}
\@writefile{nav}{\headcommand {\slideentry {6}{0}{8}{15/15}{}{0}}}
\@writefile{nav}{\headcommand {\beamer@framepages {15}{15}}}
\@writefile{toc}{\beamer@sectionintoc {7}{Perancangan Sistem}{16}{0}{7}}
\@writefile{nav}{\headcommand {\sectionentry {7}{Perancangan Sistem}{16}{Perancangan Sistem}{0}}}
\@writefile{nav}{\headcommand {\beamer@sectionpages {8}{15}}}
\@writefile{nav}{\headcommand {\beamer@subsectionpages {8}{15}}}
\@writefile{nav}{\headcommand {\slideentry {7}{0}{1}{16/16}{}{0}}}
\@writefile{nav}{\headcommand {\beamer@framepages {16}{16}}}
\newlabel{fig:arsitektur}{{7}{17}{Perancangan Sistem}{Doc-Start}{}}
\@writefile{snm}{\beamer@slide {fig:arsitektur}{17}}
\@writefile{nav}{\headcommand {\slideentry {7}{0}{2}{17/17}{}{0}}}
\@writefile{nav}{\headcommand {\beamer@framepages {17}{17}}}
\@writefile{nav}{\headcommand {\slideentry {7}{0}{3}{18/18}{}{0}}}
\@writefile{nav}{\headcommand {\beamer@framepages {18}{18}}}
\bibstyle{IEEEtran}
\bibdata{references}
\bibcite{snapnets}{\hyperlink {beamerbibsnapnets}{1}}
\bibcite{dean2008mapreduce}{\hyperlink {beamerbibdean2008mapreduce}{2}}
\bibcite{6787290}{\hyperlink {beamerbib6787290}{3}}
\bibcite{Guo2014}{\hyperlink {beamerbibGuo2014}{4}}
\bibcite{hadoop2011apache}{\hyperlink {beamerbibhadoop2011apache}{5}}
\bibcite{hasenstein2001logical}{\hyperlink {beamerbibhasenstein2001logical}{6}}
\bibcite{Ibrahim2009}{\hyperlink {beamerbibIbrahim2009}{7}}
\bibcite{Ivanov2015}{\hyperlink {beamerbibIvanov2015}{8}}
\bibcite{LXC2015}{\hyperlink {beamerbibLXC2015}{9}}
\bibcite{7038858}{\hyperlink {beamerbib7038858}{10}}
\bibcite{OpenVZ}{\hyperlink {beamerbibOpenVZ}{11}}
\bibcite{o2008terabyte}{\hyperlink {beamerbibo2008terabyte}{12}}
\bibcite{6216347}{\hyperlink {beamerbib6216347}{13}}
\bibcite{5708479}{\hyperlink {beamerbib5708479}{14}}
\bibcite{Soltesz07container-basedoperating}{\hyperlink {beamerbibSoltesz07container-basedoperating}{15}}
\bibcite{vavilapalli2013apache}{\hyperlink {beamerbibvavilapalli2013apache}{16}}
\bibcite{6498558}{\hyperlink {beamerbib6498558}{17}}
\bibcite{6455713}{\hyperlink {beamerbib6455713}{18}}
\citation{*}
\@writefile{nav}{\headcommand {\slideentry {7}{0}{4}{19/19}{}{0}}}
\@writefile{nav}{\headcommand {\beamer@framepages {19}{19}}}
\@writefile{nav}{\headcommand {\slideentry {7}{0}{4}{19/20}{}{0}}}
\@writefile{nav}{\headcommand {\beamer@framepages {19}{20}}}
\@writefile{nav}{\headcommand {\slideentry {7}{0}{4}{19/21}{}{0}}}
\@writefile{nav}{\headcommand {\beamer@framepages {19}{21}}}
\@writefile{nav}{\headcommand {\slideentry {7}{0}{4}{19/22}{}{0}}}
\@writefile{nav}{\headcommand {\beamer@framepages {19}{22}}}
\@writefile{nav}{\headcommand {\slideentry {7}{0}{4}{19/23}{}{0}}}
\@writefile{nav}{\headcommand {\beamer@framepages {19}{23}}}
\@writefile{nav}{\headcommand {\beamer@partpages {1}{23}}}
\@writefile{nav}{\headcommand {\beamer@subsectionpages {16}{23}}}
\@writefile{nav}{\headcommand {\beamer@sectionpages {16}{23}}}
\@writefile{nav}{\headcommand {\beamer@documentpages {23}}}
\@writefile{nav}{\headcommand {\def \inserttotalframenumber {23}}}
