\select@language {bahasa}
\addvspace {10\p@ }
\contentsline {table}{\numberline {1.1}{\ignorespaces Jadwal kegiatan penelitian}}{4}
\addvspace {10\p@ }
\addvspace {10\p@ }
\contentsline {table}{\numberline {3.1}{\ignorespaces Dataset \textit {movie review} oleh SNAP}}{13}
\contentsline {table}{\numberline {3.2}{\ignorespaces Skenario pengujian \textit {I/O throughput write operation}}}{14}
\contentsline {table}{\numberline {3.3}{\ignorespaces Skenario pengujian \textit {I/O throughput read operation}}}{14}
\contentsline {table}{\numberline {3.4}{\ignorespaces Skenario pengujian \textit {average time execution}}}{14}
