\relax 
\select@language{bahasa}
\@writefile{toc}{\select@language{bahasa}}
\@writefile{lof}{\select@language{bahasa}}
\@writefile{lot}{\select@language{bahasa}}
\citation{hadoop2011apache}
\citation{6216347}
\citation{5708479}
\citation{7038858}
\citation{OpenVZ}
\citation{LXC2015}
\@writefile{toc}{\contentsline {chapter}{\numberline {1}Pendahuluan}{1}}
\@writefile{lof}{\addvspace {10\p@ }}
\@writefile{lot}{\addvspace {10\p@ }}
\@writefile{toc}{\contentsline {section}{\numberline {1.1}Latar Belakang}{1}}
\citation{snapnets}
\citation{6787290}
\@writefile{toc}{\contentsline {section}{\numberline {1.2}Rumusan Masalah}{2}}
\@writefile{toc}{\contentsline {section}{\numberline {1.3}Batasan Masalah}{2}}
\@writefile{toc}{\contentsline {section}{\numberline {1.4}Tujuan}{2}}
\@writefile{toc}{\contentsline {section}{\numberline {1.5}Hipotesa}{3}}
\@writefile{toc}{\contentsline {section}{\numberline {1.6}Metodologi}{3}}
\@writefile{toc}{\contentsline {section}{\numberline {1.7}Jadwal Kegiatan}{4}}
\@writefile{lot}{\contentsline {table}{\numberline {1.1}{\ignorespaces Jadwal kegiatan penelitian}}{4}}
\newlabel{jadwal-kegiatan}{{1.1}{4}}
\citation{hadoop2011apache}
\@writefile{toc}{\contentsline {chapter}{\numberline {2}Tinjauan Pustaka}{5}}
\@writefile{lof}{\addvspace {10\p@ }}
\@writefile{lot}{\addvspace {10\p@ }}
\@writefile{toc}{\contentsline {section}{\numberline {2.1}Apache Hadoop}{5}}
\@writefile{lof}{\contentsline {figure}{\numberline {2.1}{\ignorespaces Arsitektur minimal hadoop}}{5}}
\newlabel{fig:hadoop-architecture}{{2.1}{5}}
\citation{Ibrahim2009}
\citation{dean2008mapreduce}
\@writefile{toc}{\contentsline {subsection}{\numberline {2.1.1}\textit  {Hadoop Distributed File System}}{6}}
\@writefile{lof}{\contentsline {figure}{\numberline {2.2}{\ignorespaces Arsitektur HDFS}}{6}}
\newlabel{fig:hdfs-architecture}{{2.2}{6}}
\@writefile{toc}{\contentsline {subsection}{\numberline {2.1.2}MapReduce}{6}}
\citation{vavilapalli2013apache}
\citation{6498558}
\@writefile{toc}{\contentsline {subsection}{\numberline {2.1.3}Hadoop MapReduce V2 / \textit  {Yet Another Resources Negotiator} (YARN)}{7}}
\@writefile{lof}{\contentsline {figure}{\numberline {2.3}{\ignorespaces Arsitektur MapReduce V2}}{7}}
\newlabel{fig:yarn-architecture}{{2.3}{7}}
\citation{LXC2015}
\@writefile{lof}{\contentsline {figure}{\numberline {2.4}{\ignorespaces \textit  {Hypervisor} dan kontainer}}{8}}
\newlabel{fig:vm-container}{{2.4}{8}}
\@writefile{toc}{\contentsline {section}{\numberline {2.2}\textit  {Container-based Virtualization}}{8}}
\@writefile{toc}{\contentsline {subsection}{\numberline {2.2.1}\textit  {Linux Container} (LXC)}{8}}
\@writefile{lof}{\contentsline {figure}{\numberline {2.5}{\ignorespaces Arsitektur \textit  {Linux Container}}}{8}}
\newlabel{fig:container-architecture}{{2.5}{8}}
\citation{OpenVZ}
\@writefile{toc}{\contentsline {subsection}{\numberline {2.2.2}\textit  {OpenVirtuozzo} (OpenVZ)}{9}}
\@writefile{toc}{\contentsline {chapter}{\numberline {3}Perancangan Sistem}{10}}
\@writefile{lof}{\addvspace {10\p@ }}
\@writefile{lot}{\addvspace {10\p@ }}
\@writefile{toc}{\contentsline {section}{\numberline {3.1}Analisis Kebutuhan}{10}}
\@writefile{toc}{\contentsline {subsection}{\numberline {3.1.1}Spesifikasi Perangkat Keras}{10}}
\@writefile{toc}{\contentsline {subsection}{\numberline {3.1.2}Spesifikasi Perangkat Lunak}{10}}
\citation{Ivanov2015}
\citation{7038858}
\@writefile{toc}{\contentsline {section}{\numberline {3.2}Perancangan Sistem}{11}}
\@writefile{toc}{\contentsline {subsection}{\numberline {3.2.1}Gambaran Umum Sistem}{11}}
\@writefile{toc}{\contentsline {subsection}{\numberline {3.2.2}Arsitektur Sistem}{11}}
\@writefile{lof}{\contentsline {figure}{\numberline {3.1}{\ignorespaces Arsitektur Sistem}}{11}}
\newlabel{fig:arsitektur}{{3.1}{11}}
\citation{7038858}
\citation{7038858}
\citation{Ivanov2015}
\citation{7038858}
\citation{snapnets}
\@writefile{toc}{\contentsline {section}{\numberline {3.3}Analisa dan Pengujian Sistem}{12}}
\@writefile{toc}{\contentsline {subsection}{\numberline {3.3.1}Pengujian}{12}}
\@writefile{toc}{\contentsline {subsection}{\numberline {3.3.2}Metode Pengujian}{12}}
\@writefile{toc}{\contentsline {subsubsection}{WordCount}{12}}
\@writefile{toc}{\contentsline {subsubsection}{\textit  {Amazon Movie Review SNAP}}{12}}
\citation{7038858}
\@writefile{lot}{\contentsline {table}{\numberline {3.1}{\ignorespaces Dataset \textit  {movie review} oleh SNAP}}{13}}
\newlabel{dataset-detail}{{3.1}{13}}
\@writefile{toc}{\contentsline {subsubsection}{TestDFSIO}{13}}
\@writefile{toc}{\contentsline {subsection}{\numberline {3.3.3}Tujuan Pengujian}{13}}
\bibstyle{IEEEtran}
\bibdata{references}
\@writefile{toc}{\contentsline {subsection}{\numberline {3.3.4}Skenario Pengujian}{14}}
\@writefile{lot}{\contentsline {table}{\numberline {3.2}{\ignorespaces Skenario pengujian \textit  {I/O throughput write operation}}}{14}}
\newlabel{skenario-io}{{3.2}{14}}
\@writefile{lot}{\contentsline {table}{\numberline {3.3}{\ignorespaces Skenario pengujian \textit  {I/O throughput read operation}}}{14}}
\newlabel{skenario-io-read}{{3.3}{14}}
\@writefile{lot}{\contentsline {table}{\numberline {3.4}{\ignorespaces Skenario pengujian \textit  {average time execution}}}{14}}
\newlabel{skenario-avgtime}{{3.4}{14}}
\bibcite{hadoop2011apache}{1}
\bibcite{6216347}{2}
\bibcite{5708479}{3}
\bibcite{7038858}{4}
\bibcite{OpenVZ}{5}
\bibcite{LXC2015}{6}
\bibcite{snapnets}{7}
\bibcite{6787290}{8}
\bibcite{Ibrahim2009}{9}
\bibcite{dean2008mapreduce}{10}
\bibcite{vavilapalli2013apache}{11}
\bibcite{6498558}{12}
\bibcite{Ivanov2015}{13}
