\relax 
\citation{hadoop2011apache}
\citation{6216347}
\citation{5708479}
\citation{7038858}
\citation{OpenVZ}
\citation{LXC2015}
\citation{dean2008mapreduce}
\citation{hadoop2011apache}
\citation{sparklightning}
\citation{Saha:2015:ATU:2723372.2742790}
\citation{hadoop2011apache}
\citation{Ibrahim2009}
\@writefile{toc}{\contentsline {section}{\numberline {I}Introduction}{1}}
\@writefile{toc}{\contentsline {section}{\numberline {II}MapReduce}{1}}
\@writefile{toc}{\contentsline {section}{\numberline {III}Apache Hadoop}{1}}
\@writefile{lof}{\contentsline {figure}{\numberline {1}{\ignorespaces Hadoop minimal architecture}}{1}}
\newlabel{fig_hadoop}{{1}{1}}
\citation{vavilapalli2013apache}
\citation{6498558}
\citation{6498558}
\citation{6498558}
\citation{OpenVZ}
\@writefile{toc}{\contentsline {subsection}{\numberline {\unhbox \voidb@x \hbox {III-A}}Hadoop Distributed Filesystem}{2}}
\@writefile{toc}{\contentsline {subsection}{\numberline {\unhbox \voidb@x \hbox {III-B}}Hadoop Yet Another Resources Negotiator (YARN)}{2}}
\@writefile{lof}{\contentsline {figure}{\numberline {2}{\ignorespaces YARN architecture}}{2}}
\newlabel{fig_yarn}{{2}{2}}
\@writefile{toc}{\contentsline {section}{\numberline {IV}Container-based Virtualization}{2}}
\@writefile{lof}{\contentsline {figure}{\numberline {3}{\ignorespaces Container-based and Hypervisor-based architecture}}{2}}
\newlabel{fig_archs}{{3}{2}}
\@writefile{toc}{\contentsline {subsection}{\numberline {\unhbox \voidb@x \hbox {IV-A}}Open Virtuozzo (OpenVZ)}{2}}
\@writefile{toc}{\contentsline {subsection}{\numberline {\unhbox \voidb@x \hbox {IV-B}}Linux Containers (LXC)}{2}}
\@writefile{toc}{\contentsline {section}{\numberline {V}Experiments}{2}}
\citation{cloudera2012cdh}
\citation{6787290}
\@writefile{lof}{\contentsline {figure}{\numberline {4}{\ignorespaces Cluster architecture}}{3}}
\newlabel{fig_arch}{{4}{3}}
\@writefile{toc}{\contentsline {section}{\numberline {VI}Benchmarks}{3}}
\@writefile{toc}{\contentsline {subsection}{\numberline {\unhbox \voidb@x \hbox {VI-A}}Benchmarks Scenario}{3}}
\@writefile{toc}{\contentsline {subsection}{\numberline {\unhbox \voidb@x \hbox {VI-B}}HDFS Benchmark}{3}}
\@writefile{lof}{\contentsline {figure}{\numberline {5}{\ignorespaces HDFS I/O Performance : write operation}}{3}}
\newlabel{fig_write}{{5}{3}}
\@writefile{lof}{\contentsline {figure}{\numberline {6}{\ignorespaces HDFS I/O Performance : read operation}}{3}}
\newlabel{fig_read}{{6}{3}}
\@writefile{toc}{\contentsline {subsection}{\numberline {\unhbox \voidb@x \hbox {VI-C}}MapReduce Execution Time}{3}}
\@writefile{lot}{\contentsline {table}{\numberline {I}{\ignorespaces Dataset Details}}{3}}
\newlabel{dataset-details}{{I}{3}}
\@writefile{toc}{\contentsline {section}{\numberline {VII}Conclusion}{3}}
\bibstyle{IEEEtran}
\bibdata{IEEEabrv,../references}
\bibcite{hadoop2011apache}{1}
\bibcite{6216347}{2}
\bibcite{5708479}{3}
\bibcite{7038858}{4}
\bibcite{OpenVZ}{5}
\bibcite{LXC2015}{6}
\bibcite{dean2008mapreduce}{7}
\bibcite{sparklightning}{8}
\bibcite{Saha:2015:ATU:2723372.2742790}{9}
\bibcite{Ibrahim2009}{10}
\bibcite{vavilapalli2013apache}{11}
\bibcite{6498558}{12}
\bibcite{cloudera2012cdh}{13}
\bibcite{6787290}{14}
\bibcite{snapnets}{15}
\bibcite{Ivanov2015}{16}
\@writefile{lof}{\contentsline {figure}{\numberline {7}{\ignorespaces Syslog Priority Parser average time executions on container-based virtualization}}{4}}
\newlabel{fig_word}{{7}{4}}
\@writefile{toc}{\contentsline {section}{References}{4}}
