\beamer@endinputifotherversion {3.36pt}
\select@language {english}
\beamer@sectionintoc {1}{Outline}{3}{0}{1}
\beamer@sectionintoc {2}{Motivation}{5}{0}{2}
\beamer@sectionintoc {3}{Methodology and Experiments}{7}{0}{3}
\beamer@sectionintoc {4}{Results}{8}{0}{4}
\beamer@sectionintoc {5}{Conclusions}{11}{0}{5}
